EMAIL,AREA DEALER,CHATBOT
agostino.fortino@tin.it,x,x
vareseandrea@gmail.com,x,x
alessandropescasport@hotmail.it,x,x
commerciale.milioni@gmail.com,x,x
info@cacciaepescatognini.it,x,x
frndtt@gmail.com,x,x
fabio@big-fish.it,x,x
fishing@sportit.com,x,x
gasparellacacciapesca@gmail.com,x,x
info@carptime.it,x,x
pianetapesca.francescocarta@hotmail.it,x,x
centersportfemia@gmail.com,x,x
info@dimensionepesca.com,x,x
mauropino1965@libero.it,x,x
info@areapesca.it,x,x
ilmaestrale59@gmail.com,x,x
mapipesca@gmail.com,x,x
info@mareecielo.it,x,x
info@pescasportlanza.it,x,x
obiettivopescagovigino@gmail.com,x,x
info@pescafish.it,x,x
pescasportsas@gmail.com,x,x
z.tore@libero.it,x,x
pescasportravasio@hotmail.it,x,x
addapesca@fastwebnet.it,x,x
info@sportingfish.it,x,x
info@sportsile.it,x,x
taglia74@tagliabueangelosas.191.it,x,x
verde.azzurro@alice.it,x,x
zaghinocacciapesca@libero.it,x,x
info@okpesca.it,x,x
info@armeriaparini.com,x,x
masterfish.grosseto@gmail.com,x,x
commerciale@megaintersport.it,x,x
info@pianetapesca.it,x,x
info@bernardonisergio.it,x,
londipesca@libero.it,x,x
faitaninigluca@libero.it,x,
info@cacciapescaarcieriamassi.com,x,
ordini@nencinisport.it,x,
gruppolgasportsas@gmail.com,x,
shop2@motomarine.it,x,
info@maresportnautica.it,x,
info@sergiopesca.com,x,
info@rotapesca.it,x,
luca@lamincio.com,x,x
vizonpesca@libero.it,x,
info@essecisport.com,x,
bricchipesca@libero.it,x,
a.pramatarova@hotmail.com,x,
info@mondialpesca.it,x,
info@pazziperlapesca.it,x,
pescasportmarcellan@libero.it,x,
negoziodipesca@hotmail.it,x,
dario@artepesca.it,x,
giovanna.colombo@shimano-eu.com,x,x
raffaele.mascaro@shimano-eu.com,x,x
info@olgasportsub.it,x,x
info@misterfishonline.it,x,x
info@centrosubsalento.com,x,x
info@maddalunomare.it,x,x
