Tecnica;Spinnning FW;Dove peschi?;Fiume;Quale Preda;Trota;Perfetto;Stella 4000 FI;http://fish.shimano-eu.com/content/eu/it_it/Home/products/reels/spinning/stella-fi.html;http://fish.shimano-eu.com/content/dam/shimanoweb/fish/eu/it_it/products/sefh_stella_fi/carousel-images/stella_fi_centred_v1_m56577569830902810.png.swimg.detail.png;POISON ADRENA 270M SPINNING;http://fish.shimano-eu.com/content/eu/it_it/Home/products/jdm0/canne/poison-adrena-spinning.html;http://fish.shimano-eu.com/content/dam/shimanoweb/fish/eu/it_it/products/sefh_poison_adrenaspinning/carousel-images/poison_adrena_spin_main_47x20_v1_m56577569830930253.jpg.swimg.detail.png
Tecnica;Spinnning FW;Dove peschi?;Fiume;Quale Preda;Trota;Leggero;Vanquish 4000 F;http://fish.shimano-eu.com/content/eu/it_it/Home/products/reels/spinning/vanquish-f.html;http://fish.shimano-eu.com/content/dam/shimanoweb/fish/eu/it_it/products/sefh_vanquish_f/carousel-images/vanquish_f_centred_v1_m56577569830902862.png.swimg.detail.png;Expride 266ML Spinning;http://fish.shimano-eu.com/content/eu/it_it/Home/products/jdm0/canne/expride-spinning.html;http://fish.shimano-eu.com/content/dam/shimanoweb/fish/eu/it_it/products/sefh_expride_spinning/carousel-images/expride_spin_main_47x20_v1_m56577569830930237.jpg.swimg.detail.png
Tecnica;Spinnning FW;Dove peschi?;Fiume;Quale Preda;Trota;Rapporto qualità/prezzo;Rarenium CI4 4000 FB;http://fish.shimano-eu.com/content/eu/it_it/Home/products/reels/spinning/rarenium-ci4-fb.html;http://fish.shimano-eu.com/content/dam/shimanoweb/fish/eu/it_it/products/sefh_rarenium_ci4fb/carousel-images/rarenium_ci4_fb_v1_m56577569830903043.png.swimg.detail.png;STRADIC 71 M EVA ;http://fish.shimano-eu.com/content/eu/it_it/Home/products/rods/spinning-salt-water/stradic-spinning-casting.html;http://fish.shimano-eu.com/content/dam/shimanoweb/fish/eu/it_it/products/sefh_stradic_spinning-casting/carousel-images/stradic_v1_m56577569830908263.png.swimg.detail.png
Tecnica;Spinnning FW;Dove peschi?;Fiume;Quale Preda;Trota;Per iniziare;Exage 4000 FD;http://fish.shimano-eu.com/content/eu/it_it/Home/products/reels/spinning/exage-fd.html;http://fish.shimano-eu.com/content/dam/shimanoweb/fish/eu/it_it/products/sefh_exage_fd/carousel-images/exage_fd_centred_v1_m56577569830902779.png.swimg.detail.png;CATANA DX 24 M;http://fish.shimano-eu.com/content/eu/it_it/Home/products/rods/spinning-fresh-water/catana-dx-spinning.html;http://fish.shimano-eu.com/content/dam/shimanoweb/fish/eu/it_it/products/sefh_catana_dx_spinning/carousel-images/catana_dx_spinning_270m_v1_m56577569830913917.png.swimg.detail.png
Tecnica;Spinnning FW;Dove peschi?;Fiume;Quale Preda;Aspio;Perfetto;Biomaster 4000 FB;http://fish.shimano-eu.com/content/eu/it_it/Home/products/reels/spinning/biomaster-fb.html;http://fish.shimano-eu.com/content/dam/shimanoweb/fish/eu/it_it/products/sefh_biomaster_fb/carousel-images/biomaster_fb_centred_v1_m56577569830902734.png.swimg.detail.png;ANTARES DX 240 MH;http://fish.shimano-eu.com/content/eu/it_it/Home/products/rods/spinning-fresh-water/antares-dx-spinning.html;http://fish.shimano-eu.com/content/dam/shimanoweb/fish/eu/it_it/products/sefh_antares_dx_spinning/carousel-images/antares_dx_v1_m56577569830907949.png.swimg.detail.png
Tecnica;Spinnning FW;Dove peschi?;Fiume;Quale Preda;Aspio;Leggero;Stradic 4000 CI4+ FA;http://fish.shimano-eu.com/content/eu/it_it/Home/products/reels/spinning/stradic-ci4-fa.html;http://fish.shimano-eu.com/content/dam/shimanoweb/fish/eu/it_it/products/sefh_stradic_ci4fa/carousel-images/stradic_ci4_fa_centred_v1_m56577569830903046.png.swimg.detail.png;BIOMASTER 71 M  EVA ;http://fish.shimano-eu.com/content/eu/it_it/Home/products/rods/spinning-salt-water/biomaster-spinning-casting.html;http://fish.shimano-eu.com/content/dam/shimanoweb/fish/eu/it_it/products/sefh_biomaster_spinning-casting/carousel-images/biomaster_v1_m56577569830908036.png.swimg.detail.png
Tecnica;Spinnning FW;Dove peschi?;Fiume;Quale Preda;Aspio;Rapporto qualità/prezzo;Technium 4000 FD;http://fish.shimano-eu.com/content/eu/it_it/Home/products/reels/spinning/technium-fd.html;http://fish.shimano-eu.com/content/dam/shimanoweb/fish/eu/it_it/products/sefh_technium_fd/carousel-images/technium_fd_centred_v1_m56577569830902833.png.swimg.detail.png;BEASTMASTER DX 24MH;http://fish.shimano-eu.com/content/eu/it_it/Home/products/rods/spinning-fresh-water/beastmaster-dx-spinning-casting.html;http://fish.shimano-eu.com/content/dam/shimanoweb/fish/eu/it_it/products/sefh_beastmasterdxspinning-casting/carousel-images/beastmaster_dx_v1_m56577569830908010.png.swimg.detail.png
Tecnica;Spinnning FW;Dove peschi?;Fiume;Quale Preda;Aspio;Per iniziare;Exage 4000 FD;http://fish.shimano-eu.com/content/eu/it_it/Home/products/reels/spinning/exage-fd.html;http://fish.shimano-eu.com/content/dam/shimanoweb/fish/eu/it_it/products/sefh_exage_fd/carousel-images/exage_fd_centred_v1_m56577569830902779.png.swimg.detail.png;SCIMITAR AX 24MH  EVA ;http://fish.shimano-eu.com/content/eu/it_it/Home/products/rods/spinning-fresh-water/scimitar-ax-spinning-casting.html;http://fish.shimano-eu.com/content/dam/shimanoweb/fish/eu/it_it/products/sefh_scimitar_axspinning-casting/carousel-images/scimitar_ax_v1_m56577569830908223.png.swimg.detail.png
Tecnica;Spinnning FW;Dove peschi?;Fiume;Quale Preda;Luccio;Perfetto;Sustain 5000 FG;http://fish.shimano-eu.com/content/eu/it_it/Home/products/reels/spinning/sustain-fg.html;http://fish.shimano-eu.com/content/dam/shimanoweb/fish/eu/it_it/products/sefh_sustain_fg/carousel-images/sustain_fg_centred_v1_m56577569830902824.png.swimg.detail.png;ANTARES DX 270H;http://fish.shimano-eu.com/content/eu/it_it/Home/products/rods/spinning-fresh-water/antares-dx-spinning.html;http://fish.shimano-eu.com/content/dam/shimanoweb/fish/eu/it_it/products/sefh_antares_dx_spinning/carousel-images/antares_dx_v1_m56577569830907949.png.swimg.detail.png
Tecnica;Spinnning FW;Dove peschi?;Fiume;Quale Preda;Luccio;Leggero;AR-C Aero CI4+ 4000 ;http://fish.shimano-eu.com/content/eu/it_it/Home/products/reels/spinning/ar-c-aero-ci4.html;http://fish.shimano-eu.com/content/dam/shimanoweb/fish/eu/it_it/products/sefh_ar-c_aero_ci4/carousel-images/arc_aero_ci4_centred_v1_m56577569830903038.png.swimg.detail.png;SUSTAIN 27 15-40  EVA;http://fish.shimano-eu.com/content/eu/it_it/Home/products/rods/spinning-fresh-water/sustain-spinning-casting.html;http://fish.shimano-eu.com/content/dam/shimanoweb/fish/eu/it_it/products/sefh_sustain_spinning-casting/carousel-images/sustain_v1_m56577569830908297.png.swimg.detail.png
Tecnica;Spinnning FW;Dove peschi?;Fiume;Quale Preda;Luccio;Rapporto qualità/prezzo;Technium 5000 FD;http://fish.shimano-eu.com/content/eu/it_it/Home/products/reels/spinning/technium-fd.html;http://fish.shimano-eu.com/content/dam/shimanoweb/fish/eu/it_it/products/sefh_technium_fd/carousel-images/technium_fd_centred_v1_m56577569830902833.png.swimg.detail.png;BEASTMASTER DX 27H;http://fish.shimano-eu.com/content/eu/it_it/Home/products/rods/spinning-fresh-water/beastmaster-dx-spinning-casting.html;http://fish.shimano-eu.com/content/dam/shimanoweb/fish/eu/it_it/products/sefh_beastmasterdxspinning-casting/carousel-images/beastmaster_dx_v1_m56577569830908010.png.swimg.detail.png
Tecnica;Spinnning FW;Dove peschi?;Fiume;Quale Preda;Luccio;Per iniziare;Aernos 5000 FB;http://fish.shimano-eu.com/content/eu/it_it/Home/products/reels/spinning/aernos-fb.html;http://fish.shimano-eu.com/content/dam/shimanoweb/fish/eu/it_it/products/sefh_aernos_fb/carousel-images/aernos_fb_centred_v1_m56577569830902665.png.swimg.detail.png;CATANA DX 27H;http://fish.shimano-eu.com/content/eu/it_it/Home/products/rods/spinning-fresh-water/catana-dx-spinning.html;http://fish.shimano-eu.com/content/dam/shimanoweb/fish/eu/it_it/products/sefh_catana_dx_spinning/carousel-images/catana_dx_spinning_270m_v1_m56577569830913917.png.swimg.detail.png
Tecnica;Spinnning FW;Dove peschi?;Torrente;Quale Preda;Trota;Perfetto;Stella 2000 FI;http://fish.shimano-eu.com/content/eu/it_it/Home/products/reels/spinning/stella-fi.html;http://fish.shimano-eu.com/content/dam/shimanoweb/fish/eu/it_it/products/sefh_stella_fi/carousel-images/stella_fi_centred_v1_m56577569830902810.png.swimg.detail.png;Expride 266ML Spinning;http://fish.shimano-eu.com/content/eu/it_it/Home/products/jdm0/canne/expride-spinning.html;http://fish.shimano-eu.com/content/dam/shimanoweb/fish/eu/it_it/products/sefh_expride_spinning/carousel-images/expride_spin_main_47x20_v1_m56577569830930237.jpg.swimg.detail.png
Tecnica;Spinnning FW;Dove peschi?;Torrente;Quale Preda;Trota;Leggero;Vanquish 2500 F;http://fish.shimano-eu.com/content/eu/it_it/Home/products/reels/spinning/vanquish-f.html;http://fish.shimano-eu.com/content/dam/shimanoweb/fish/eu/it_it/products/sefh_vanquish_f/carousel-images/vanquish_f_centred_v1_m56577569830902862.png.swimg.detail.png;Expride 262UL Spinning;http://fish.shimano-eu.com/content/eu/it_it/Home/products/jdm0/canne/expride-spinning.html;http://fish.shimano-eu.com/content/dam/shimanoweb/fish/eu/it_it/products/sefh_expride_spinning/carousel-images/expride_spin_main_47x20_v1_m56577569830930237.jpg.swimg.detail.png
Tecnica;Spinnning FW;Dove peschi?;Torrente;Quale Preda;Trota;Rapporto qualità/prezzo;Aero 2500 FA;http://fish.shimano-eu.com/content/dam/shimanoweb/fish/eu/it_it/products/sefh_aernos_fb/carousel-images/aernos_fb_centred_v1_m56577569830902665.png.swimg.detail.png;http://fish.shimano-eu.com/content/dam/shimanoweb/fish/eu/it_it/products/sefh_aero_fa/carousel-images/aero_fa_centred_v1_m56577569830902668.png.swimg.detail.png;BEASTMASTER DX 210ML;http://fish.shimano-eu.com/content/eu/it_it/Home/products/rods/spinning-fresh-water/beastmaster-dx-spinning-casting.html;http://fish.shimano-eu.com/content/dam/shimanoweb/fish/eu/it_it/products/sefh_beastmasterdxspinning-casting/carousel-images/beastmaster_dx_v1_m56577569830908010.png.swimg.detail.png
Tecnica;Spinnning FW;Dove peschi?;Torrente;Quale Preda;Trota;Per iniziare;Exage 2500 FD;http://fish.shimano-eu.com/content/eu/it_it/Home/products/reels/spinning/exage-fd.html;http://fish.shimano-eu.com/content/dam/shimanoweb/fish/eu/it_it/products/sefh_exage_fd/carousel-images/exage_fd_centred_v1_m56577569830902779.png.swimg.detail.png;EXAGE 210ML;http://fish.shimano-eu.com/content/eu/it_it/Home/products/rods/spinning-fresh-water/exage-spinning.html;http://fish.shimano-eu.com/content/dam/shimanoweb/fish/eu/it_it/products/sefh_exage_spinning/carousel-images/exage_v1_m56577569830908123.png.swimg.detail.png
Tecnica;Spinnning FW;Dove peschi?;Lago;Quale Preda;Trota;Perfetto;Stella 4000 FI;http://fish.shimano-eu.com/content/eu/it_it/Home/products/reels/spinning/stella-fi.html;http://fish.shimano-eu.com/content/dam/shimanoweb/fish/eu/it_it/products/sefh_stella_fi/carousel-images/stella_fi_centred_v1_m56577569830902810.png.swimg.detail.png;POISON ADRENA 270M SPINNING;http://fish.shimano-eu.com/content/eu/it_it/Home/products/jdm0/canne/poison-adrena-spinning.html;http://fish.shimano-eu.com/content/dam/shimanoweb/fish/eu/it_it/products/sefh_poison_adrenaspinning/carousel-images/poison_adrena_spin_main_47x20_v1_m56577569830930253.jpg.swimg.detail.png
Tecnica;Spinnning FW;Dove peschi?;Lago;Quale Preda;Trota;Leggero ;AR-C Aero CI4+ 4000 ;http://fish.shimano-eu.com/content/eu/it_it/Home/products/reels/spinning/ar-c-aero-ci4.html;http://fish.shimano-eu.com/content/dam/shimanoweb/fish/eu/it_it/products/sefh_ar-c_aero_ci4/carousel-images/arc_aero_ci4_centred_v1_m56577569830903038.png.swimg.detail.png;ANTARES DX 24ML;http://fish.shimano-eu.com/content/eu/it_it/Home/products/rods/spinning-fresh-water/antares-dx-spinning.html;http://fish.shimano-eu.com/content/dam/shimanoweb/fish/eu/it_it/products/sefh_antares_dx_spinning/carousel-images/antares_dx_v1_m56577569830907949.png.swimg.detail.png
Tecnica;Spinnning FW;Dove peschi?;Lago;Quale Preda;Trota;Rapporto qualità/prezzo;Aero 4000 Spinnning;http://fish.shimano-eu.com/content/eu/it_it/Home/products/reels/spinning/aero-fa-spinning.html;http://fish.shimano-eu.com/content/dam/shimanoweb/fish/eu/it_it/products/sefh_aero_fa_spinning/carousel-images/aero_spin_centred_v1_m56577569830902677.png.swimg.detail.png;BEASTMASTER DX 240ML;http://fish.shimano-eu.com/content/eu/it_it/Home/products/rods/spinning-fresh-water/beastmaster-dx-spinning-casting.html;http://fish.shimano-eu.com/content/dam/shimanoweb/fish/eu/it_it/products/sefh_beastmasterdxspinning-casting/carousel-images/beastmaster_dx_v1_m56577569830908010.png.swimg.detail.png
Tecnica;Spinnning FW;Dove peschi?;Lago;Quale Preda;Trota;Per iniziare;Exage 4000 FD;http://fish.shimano-eu.com/content/eu/it_it/Home/products/reels/spinning/exage-fd.html;http://fish.shimano-eu.com/content/dam/shimanoweb/fish/eu/it_it/products/sefh_exage_fd/carousel-images/exage_fd_centred_v1_m56577569830902779.png.swimg.detail.png;CATANA DX 240ML;http://fish.shimano-eu.com/content/eu/it_it/Home/products/rods/spinning-fresh-water/catana-dx-spinning.html;http://fish.shimano-eu.com/content/dam/shimanoweb/fish/eu/it_it/products/sefh_catana_dx_spinning/carousel-images/catana_dx_spinning_270m_v1_m56577569830913917.png.swimg.detail.png
Tecnica;Spinnning FW;Dove peschi?;Lago;Quale Preda;Persico;Perfetto;Stella 3000 FI;http://fish.shimano-eu.com/content/eu/it_it/Home/products/reels/spinning/stella-fi.html;http://fish.shimano-eu.com/content/dam/shimanoweb/fish/eu/it_it/products/sefh_stella_fi/carousel-images/stella_fi_centred_v1_m56577569830902810.png.swimg.detail.png;Expride 266ML Spinning;http://fish.shimano-eu.com/content/eu/it_it/Home/products/jdm0/canne/expride-spinning.html;http://fish.shimano-eu.com/content/dam/shimanoweb/fish/eu/it_it/products/sefh_expride_spinning/carousel-images/expride_spin_main_47x20_v1_m56577569830930237.jpg.swimg.detail.png
Tecnica;Spinnning FW;Dove peschi?;Lago;Quale Preda;Persico;Leggero ;Rarenium CI4 3000 FB;http://fish.shimano-eu.com/content/eu/it_it/Home/products/reels/spinning/rarenium-ci4-fb.html;http://fish.shimano-eu.com/content/dam/shimanoweb/fish/eu/it_it/products/sefh_rarenium_ci4fb/carousel-images/rarenium_ci4_fb_v1_m56577569830903043.png.swimg.detail.png;DIAFLASH  AX 225L;http://fish.shimano-eu.com/content/eu/it_it/Home/products/rods/spinning-fresh-water/diaflash-ax-spinning-light.html;http://fish.shimano-eu.com/content/dam/shimanoweb/fish/eu/it_it/products/sefh_diaflash_axspinninglight/carousel-images/diaflash_ax_v1_m56577569830908117.png.swimg.detail.png
Tecnica;Spinnning FW;Dove peschi?;Lago;Quale Preda;Persico;Rapporto qualità/prezzo ;Technium 3000 FD;http://fish.shimano-eu.com/content/eu/it_it/Home/products/reels/spinning/technium-fd.html;http://fish.shimano-eu.com/content/dam/shimanoweb/fish/eu/it_it/products/sefh_technium_fd/carousel-images/technium_fd_centred_v1_m56577569830902833.png.swimg.detail.png;BEASTMASTER DX 201M;http://fish.shimano-eu.com/content/eu/it_it/Home/products/rods/spinning-fresh-water/beastmaster-dx-spinning-casting.html;http://fish.shimano-eu.com/content/dam/shimanoweb/fish/eu/it_it/products/sefh_beastmasterdxspinning-casting/carousel-images/beastmaster_dx_v1_m56577569830908010.png.swimg.detail.png
Tecnica;Spinnning FW;Dove peschi?;Lago;Quale Preda;Persico;Per iniziare;Exage 3000 FD;http://fish.shimano-eu.com/content/eu/it_it/Home/products/reels/spinning/exage-fd.html;http://fish.shimano-eu.com/content/dam/shimanoweb/fish/eu/it_it/products/sefh_exage_fd/carousel-images/exage_fd_centred_v1_m56577569830902779.png.swimg.detail.png;EXAGE 210M;http://fish.shimano-eu.com/content/eu/it_it/Home/products/rods/spinning-fresh-water/exage-spinning.html;http://fish.shimano-eu.com/content/dam/shimanoweb/fish/eu/it_it/products/sefh_exage_spinning/carousel-images/exage_v1_m56577569830908123.png.swimg.detail.png
Tecnica;Spinnning FW;Dove peschi?;Lago;Quale Preda;Luccio;Perfetto;Sustain 5000 FG;http://fish.shimano-eu.com/content/eu/it_it/Home/products/reels/spinning/sustain-fg.html;http://fish.shimano-eu.com/content/dam/shimanoweb/fish/eu/it_it/products/sefh_sustain_fg/carousel-images/sustain_fg_centred_v1_m56577569830902824.png.swimg.detail.png;ANTARES DX 270H;http://fish.shimano-eu.com/content/eu/it_it/Home/products/rods/spinning-fresh-water/antares-dx-spinning.html;http://fish.shimano-eu.com/content/dam/shimanoweb/fish/eu/it_it/products/sefh_antares_dx_spinning/carousel-images/antares_dx_v1_m56577569830907949.png.swimg.detail.png
Tecnica;Spinnning FW;Dove peschi?;Lago;Quale Preda;Luccio;Leggero;AR-C Aero CI4+ 4000 ;http://fish.shimano-eu.com/content/eu/it_it/Home/products/reels/spinning/ar-c-aero-ci4.html;http://fish.shimano-eu.com/content/dam/shimanoweb/fish/eu/it_it/products/sefh_ar-c_aero_ci4/carousel-images/arc_aero_ci4_centred_v1_m56577569830903038.png.swimg.detail.png;SUSTAIN 27 15-40  EVA ;http://fish.shimano-eu.com/content/eu/it_it/Home/products/rods/spinning-fresh-water/sustain-spinning-casting.html;http://fish.shimano-eu.com/content/dam/shimanoweb/fish/eu/it_it/products/sefh_sustain_spinning-casting/carousel-images/sustain_v1_m56577569830908297.png.swimg.detail.png
Tecnica;Spinnning FW;Dove peschi?;Lago;Quale Preda;Luccio;Rapporto qualità/prezzo;Technium 5000 FD;http://fish.shimano-eu.com/content/eu/it_it/Home/products/reels/spinning/technium-fd.html;http://fish.shimano-eu.com/content/dam/shimanoweb/fish/eu/it_it/products/sefh_technium_fd/carousel-images/technium_fd_centred_v1_m56577569830902833.png.swimg.detail.png;BEASTMASTER DX 27H;http://fish.shimano-eu.com/content/eu/it_it/Home/products/rods/spinning-fresh-water/beastmaster-dx-spinning-casting.html;http://fish.shimano-eu.com/content/dam/shimanoweb/fish/eu/it_it/products/sefh_beastmasterdxspinning-casting/carousel-images/beastmaster_dx_v1_m56577569830908010.png.swimg.detail.png
Tecnica;Spinnning FW;Dove peschi?;Lago;Quale Preda;Luccio;Per iniziare;Aernos 5000 FB;http://fish.shimano-eu.com/content/eu/it_it/Home/products/reels/spinning/aernos-fb.html;http://fish.shimano-eu.com/content/dam/shimanoweb/fish/eu/it_it/products/sefh_aernos_fb/carousel-images/aernos_fb_centred_v1_m56577569830902665.png.swimg.detail.png;CATANA DX 27H;http://fish.shimano-eu.com/content/eu/it_it/Home/products/rods/spinning-fresh-water/catana-dx-spinning.html;http://fish.shimano-eu.com/content/dam/shimanoweb/fish/eu/it_it/products/sefh_catana_dx_spinning/carousel-images/catana_dx_spinning_270m_v1_m56577569830913917.png.swimg.detail.png
Tecnica;Spinnng SW;Da dove peschi?;Inshore;Quale Preda;Spigola;Perfetto;Exsence 4000 CI4+;http://fish.shimano-eu.com/content/eu/it_it/Home/products/jdm0/mulinelli/exsence-ci4.html;http://fish.shimano-eu.com/content/dam/shimanoweb/fish/eu/it_it/products/sefh_exsence_ci4/carousel-images/excense_47x20_v1_m56577569830930206.jpg.swimg.detail.png;DIALUNA XR S 806ML;http://fish.shimano-eu.com/content/eu/it_it/Home/products/rods/spinning-fresh-water/diaflash-ax-spinning-light.html;http://fish.shimano-eu.com/content/dam/shimanoweb/fish/eu/it_it/products/sefh_diaflash_axspinninglight/carousel-images/diaflash_ax_v1_m56577569830908117.png.swimg.detail.png
Tecnica;Spinnng SW;Da dove peschi?;Inshore;Quale Preda;Spigola;Leggero;Stradic 4000 CI4+ FA;http://fish.shimano-eu.com/content/eu/it_it/Home/products/reels/spinning/stradic-ci4-fa.html;http://fish.shimano-eu.com/content/dam/shimanoweb/fish/eu/it_it/products/sefh_stradic_ci4fa/carousel-images/stradic_ci4_fa_centred_v1_m56577569830903046.png.swimg.detail.png;BLUE ROMANCE SOFTBAIT 80721;http://fish.shimano-eu.com/content/eu/it_it/Home/products/rods/spinning-salt-water/blue-romance-sb.html;http://fish.shimano-eu.com/content/dam/shimanoweb/fish/eu/it_it/products/sefh_blue_romancesb/carousel-images/blue_romance_softbait_v1_m56577569830908065.png.swimg.detail.png
Tecnica;Spinnng SW;Da dove peschi?;Inshore;Quale Preda;Spigola;Per iniziare;Exage 4000 FD;http://fish.shimano-eu.com/content/eu/it_it/Home/products/reels/spinning/exage-fd.html;http://fish.shimano-eu.com/content/dam/shimanoweb/fish/eu/it_it/products/sefh_exage_fd/carousel-images/exage_fd_centred_v1_m56577569830902779.png.swimg.detail.png;YASEI RED SEA BASS 240M;http://fish.shimano-eu.com/content/eu/it_it/Home/products/rods/spinning-salt-water/yasei-red-sea-bass.html;http://fish.shimano-eu.com/content/dam/shimanoweb/fish/eu/it_it/products/sefh_yasei_red_seabass/carousel-images/yasei_red_sea_bass_v1_m56577569830908572.png.swimg.detail.png
Tecnica;Spinnng SW;Da dove peschi?;Inshore;Quale Preda;Predatori;Perfetto:;Stella 4000 SWB;http://fish.shimano-eu.com/content/eu/it_it/Home/products/reels/heavy-duty-spinning/stella-sw-b.html;http://fish.shimano-eu.com/content/dam/shimanoweb/fish/eu/it_it/products/sefh_stella_sw-b/carousel-images/stella_swb_centred_v1_m56577569830902813.png.swimg.detail.png;;NO;NO
Tecnica;Spinnng SW;Da dove peschi?;Inshore;Quale Preda;Predatori;Affidabile;Twin Power 4000 SWB;http://fish.shimano-eu.com/content/eu/it_it/Home/products/reels/heavy-duty-spinning/twinpower-sw-a.html;http://fish.shimano-eu.com/content/dam/shimanoweb/fish/eu/it_it/products/sefh_twinpower_sw-a/carousel-images/twinpower_swa_v1_m56577569830902844.png.swimg.detail.png;;NO;NO
Tecnica;Spinnng SW;Da dove peschi?;Inshore;Quale Preda;Predatori;Per iniziareRarenium 4000 FB;Rarenium CI4 4000 FB;http://fish.shimano-eu.com/content/eu/it_it/Home/products/reels/spinning/rarenium-ci4-fb.html;http://fish.shimano-eu.com/content/dam/shimanoweb/fish/eu/it_it/products/sefh_rarenium_ci4fb/carousel-images/rarenium_ci4_fb_v1_m56577569830903043.png.swimg.detail.png;BLUEROMANCE JERKBAIT 10-30;http://fish.shimano-eu.com/content/eu/it_it/Home/products/rods/spinning-salt-water/blue-romance-jb.html;http://fish.shimano-eu.com/content/dam/shimanoweb/fish/eu/it_it/products/sefh_blue_romancejb/carousel-images/blue_romance_jerkbait_v1_m56577569830908044.png.swimg.detail.png
Tecnica;Spinnng SW;Da dove peschi?;Inshore;Quale Preda;Eging;Perfetto;Sephia 3000 BB;http://fish.shimano-eu.com/content/eu/it_it/Home/products/jdm0/mulinelli/sephia-bb.html;http://fish.shimano-eu.com/content/dam/shimanoweb/fish/eu/it_it/products/sefh_sephia_bb/carousel-images/sephiaBB_47x20_v1_m56577569830930211.jpg.swimg.detail.png;Sephia SSR 803M;http://fish.shimano-eu.com/content/eu/it_it/Home/products/jdm0/canne/sephia-ssr.html;http://fish.shimano-eu.com/content/dam/shimanoweb/fish/eu/it_it/products/sefh_sephia_ssr/carousel-images/sephia_ssr_main_47x20_v1_m56577569830930255.jpg.swimg.detail.png
Tecnica;Spinnng SW;Da dove peschi?;Inshore;Quale Preda;Eging;Leggero;Stradic 3000 CI4+ FA;http://fish.shimano-eu.com/content/eu/it_it/Home/products/reels/spinning/stradic-ci4-fa.html;http://fish.shimano-eu.com/content/dam/shimanoweb/fish/eu/it_it/products/sefh_stradic_ci4fa/carousel-images/stradic_ci4_fa_centred_v1_m56577569830903046.png.swimg.detail.png;Sephia SSR 803ML;http://fish.shimano-eu.com/content/eu/it_it/Home/products/jdm0/canne/sephia-ssr.html;http://fish.shimano-eu.com/content/dam/shimanoweb/fish/eu/it_it/products/sefh_sephia_ssr/carousel-images/sephia_ssr_main_47x20_v1_m56577569830930255.jpg.swimg.detail.png
Tecnica;Spinnng SW;Da dove peschi?;Inshore;Quale Preda;Eging;Per iniziare;Exage 3000 FD;http://fish.shimano-eu.com/content/eu/it_it/Home/products/reels/spinning/exage-fd.html;http://fish.shimano-eu.com/content/dam/shimanoweb/fish/eu/it_it/products/sefh_exage_fd/carousel-images/exage_fd_centred_v1_m56577569830902779.png.swimg.detail.png;YASEI RED AORI;http://fish.shimano-eu.com/content/eu/it_it/Home/products/rods/spinning-salt-water/yasei-red-aori.html;http://fish.shimano-eu.com/content/dam/shimanoweb/fish/eu/it_it/products/sefh_yasei_red_aori/carousel-images/yasei_red_aori_v1_m56577569830908515.png.swimg.detail.png
Tecnica;Spinnng SW;Da dove peschi?;Inshore;Quale Preda;Light game;Perfetto;Stella 2000 FI;http://fish.shimano-eu.com/content/eu/it_it/Home/products/reels/spinning/stella-fi.html;http://fish.shimano-eu.com/content/dam/shimanoweb/fish/eu/it_it/products/sefh_stella_fi/carousel-images/stella_fi_centred_v1_m56577569830902810.png.swimg.detail.png;Sephia SSR 803M;http://fish.shimano-eu.com/content/eu/it_it/Home/products/jdm0/canne/sephia-ssr.html;http://fish.shimano-eu.com/content/dam/shimanoweb/fish/eu/it_it/products/sefh_sephia_ssr/carousel-images/sephia_ssr_main_47x20_v1_m56577569830930255.jpg.swimg.detail.png
Tecnica;Spinnng SW;Da dove peschi?;Inshore;Quale Preda;Light game;Leggero ;Rarenium CI4 3000 FB;http://fish.shimano-eu.com/content/eu/it_it/Home/products/reels/spinning/rarenium-ci4-fb.html;http://fish.shimano-eu.com/content/dam/shimanoweb/fish/eu/it_it/products/sefh_rarenium_ci4fb/carousel-images/rarenium_ci4_fb_v1_m56577569830903043.png.swimg.detail.png;BLUE ROMANCE LIGHT GAME 3-10;http://fish.shimano-eu.com/content/eu/it_it/Home/products/rods/spinning-salt-water/blue-romance-l-game.html;http://fish.shimano-eu.com/content/dam/shimanoweb/fish/eu/it_it/products/sefh_blue_romancelgame/carousel-images/blue_romance_lightgame_v1_m56577569830908051.png.swimg.detail.png
Tecnica;Spinnng SW;Da dove peschi?;Inshore;Quale Preda;Light game;Per iniziare;Aero 2500 FA;http://fish.shimano-eu.com/content/dam/shimanoweb/fish/eu/it_it/products/sefh_aernos_fb/carousel-images/aernos_fb_centred_v1_m56577569830902665.png.swimg.detail.png;http://fish.shimano-eu.com/content/dam/shimanoweb/fish/eu/it_it/products/sefh_aero_fa/carousel-images/aero_fa_centred_v1_m56577569830902668.png.swimg.detail.png;CATANA CX 24M SUPER SENSITIVE;http://fish.shimano-eu.com/content/eu/it_it/Home/products/rods/spinning-fresh-water/catana-cx-spinning-super-sensitive.html;http://fish.shimano-eu.com/content/dam/shimanoweb/fish/eu/it_it/products/sefh_catana_cx_spinningsupersensitive/carousel-images/catana_cx_super_sensitive_cu1_v1_m56577569830913925.png.swimg.detail.png
Tecnica;Spinnng SW;Da dove peschi?;Offshore;Quale Preda;Tonno;Perfetto;Stella 14000 SWB;http://fish.shimano-eu.com/content/eu/it_it/Home/products/reels/heavy-duty-spinning/stella-sw-b.html;http://fish.shimano-eu.com/content/dam/shimanoweb/fish/eu/it_it/products/sefh_stella_sw-b/carousel-images/stella_swb_centred_v1_m56577569830902813.png.swimg.detail.png;GRAPPLER S80M;http://fish.shimano-eu.com/content/eu/it_it/Home/products/jdm0/canne/grappler.html;http://fish.shimano-eu.com/content/dam/shimanoweb/fish/eu/it_it/products/sefh_grappler/carousel-images/grappler_main_47x20_v1_m56577569830930247.jpg.swimg.detail.png
Tecnica;Spinnng SW;Da dove peschi?;Offshore;Quale Preda;Tonno;Affidabile;Twin Power 14000 SWB;http://fish.shimano-eu.com/content/eu/it_it/Home/products/reels/heavy-duty-spinning/twinpower-sw-a.html;http://fish.shimano-eu.com/content/dam/shimanoweb/fish/eu/it_it/products/sefh_twinpower_sw-a/carousel-images/twinpower_swa_v1_m56577569830902844.png.swimg.detail.png;OCEA BB BLUEFIN;http://fish.shimano-eu.com/content/eu/it_it/Home/products/rods/spinning-salt-water/ocea-bb-bluefin.html;http://fish.shimano-eu.com/content/dam/shimanoweb/fish/eu/it_it/products/sefh_ocea_bb_bluefin/carousel-images/ocea_bb_bluefin1_v1_m56577569830913935.png.swimg.detail.png
Tecnica;Spinnng SW;Da dove peschi?;Offshore;Quale Preda;Predatori;Perfetto;Stella 5000 SWB;http://fish.shimano-eu.com/content/eu/it_it/Home/products/reels/heavy-duty-spinning/stella-sw-b.html;http://fish.shimano-eu.com/content/dam/shimanoweb/fish/eu/it_it/products/sefh_stella_sw-b/carousel-images/stella_swb_centred_v1_m56577569830902813.png.swimg.detail.png;;NO;NO
Tecnica;Spinnng SW;Da dove peschi?;Offshore;Quale Preda;Predatori;Affidabile;Twin Power 5000 SWB;http://fish.shimano-eu.com/content/eu/it_it/Home/products/reels/heavy-duty-spinning/twinpower-sw-a.html;http://fish.shimano-eu.com/content/dam/shimanoweb/fish/eu/it_it/products/sefh_twinpower_sw-a/carousel-images/twinpower_swa_v1_m56577569830902844.png.swimg.detail.png;;NO;NO
Tecnica;Spinnng SW;Da dove peschi?;Offshore;Quale Preda;Predatori;Per iniziare;Biomaster 5000 SWA;http://fish.shimano-eu.com/content/eu/it_it/Home/products/reels/heavy-duty-spinning/biomaster-sw-a.html;http://fish.shimano-eu.com/content/dam/shimanoweb/fish/eu/it_it/products/sefh_biomaster_sw-a/carousel-images/biomaster_swa_centred_v1_m56577569830902739.png.swimg.detail.png;;NO;NO
Tecnica;Bolognese;Dove peschi?;Mare;-;-;Perfetto;Stella 4000 FI;http://fish.shimano-eu.com/content/eu/it_it/Home/products/reels/spinning/stella-fi.html;http://fish.shimano-eu.com/content/dam/shimanoweb/fish/eu/it_it/products/sefh_stella_fi/carousel-images/stella_fi_centred_v1_m56577569830902810.png.swimg.detail.png;FIREBLOOD TE5 7 METRI;http://fish.shimano-eu.com/content/eu/it_it/Home/products/rods/telescopic/fireblood-te-gt-5.html;http://fish.shimano-eu.com/content/dam/shimanoweb/fish/eu/it_it/products/sefh_fireblood_tegt5/carousel-images/fireblood_te_gt5_v1_m56577569830908155.png.swimg.detail.png
Tecnica;Bolognese;Dove peschi?;Mare;-;-;Rapporto qualità/prezzo ;Aero 4000 Spinnning;http://fish.shimano-eu.com/content/eu/it_it/Home/products/reels/spinning/aero-fa-spinning.html;http://fish.shimano-eu.com/content/dam/shimanoweb/fish/eu/it_it/products/sefh_aero_fa_spinning/carousel-images/aero_spin_centred_v1_m56577569830902677.png.swimg.detail.png;TECHNIUM FX TE5 7 METRI;http://fish.shimano-eu.com/content/eu/it_it/Home/products/rods/telescopic/technium-fx-te-5.html;http://fish.shimano-eu.com/content/dam/shimanoweb/fish/eu/it_it/products/sefh_technium_fxte5/carousel-images/technium_te5_tegt5_v1_m56577569830908313.png.swimg.detail.png
Tecnica;Bolognese;Dove peschi?;Mare;-;-;Per iniziare ;Exage 4000 FD;http://fish.shimano-eu.com/content/eu/it_it/Home/products/reels/spinning/exage-fd.html;http://fish.shimano-eu.com/content/dam/shimanoweb/fish/eu/it_it/products/sefh_exage_fd/carousel-images/exage_fd_centred_v1_m56577569830902779.png.swimg.detail.png;VENGEANCE AX TE5 6 METRI;http://fish.shimano-eu.com/content/eu/it_it/Home/products/rods/telescopic/vengeance-ax-te-gt-5.html;http://fish.shimano-eu.com/content/dam/shimanoweb/fish/eu/it_it/products/sefh_vengeance_axtegt5/carousel-images/vengeance_ax_te_gt5_v1_m56577569830908414.png.swimg.detail.png
Tecnica;Bolognese;Dove peschi?;Fiume;-;-;Perfetto ;Stella 2500 FI;http://fish.shimano-eu.com/content/eu/it_it/Home/products/reels/spinning/stella-fi.html;http://fish.shimano-eu.com/content/dam/shimanoweb/fish/eu/it_it/products/sefh_stella_fi/carousel-images/stella_fi_centred_v1_m56577569830902810.png.swimg.detail.png;ASPIRE ULTRA AX TE4 7 METRI;http://fish.shimano-eu.com/content/dam/shimanoweb/fish/eu/it_it/products/sefh_aspire_ultraaxtegt4/carousel-images/aspire_ultra_ax_te4_v1_m56577569830907957.png.swimg.detail.png;http://fish.shimano-eu.com/content/dam/shimanoweb/fish/eu/it_it/products/sefh_aspire_ultraaxtegt4/carousel-images/aspire_ultra_ax_te4_v1_m56577569830907957.png.swimg.detail.png
Tecnica;Bolognese;Dove peschi?;Fiume;-;-;Rapporto qualità/prezzo ;Aero 2500 FA;http://fish.shimano-eu.com/content/dam/shimanoweb/fish/eu/it_it/products/sefh_aernos_fb/carousel-images/aernos_fb_centred_v1_m56577569830902665.png.swimg.detail.png;http://fish.shimano-eu.com/content/dam/shimanoweb/fish/eu/it_it/products/sefh_aero_fa/carousel-images/aero_fa_centred_v1_m56577569830902668.png.swimg.detail.png;EXAGE AX TE4 7 METRI;http://fish.shimano-eu.com/content/eu/it_it/Home/products/rods/telescopic/exage-ax-te-gt-4.html;http://fish.shimano-eu.com/content/dam/shimanoweb/fish/eu/it_it/products/sefh_exage_ax_tegt4/carousel-images/exage_ax_te_gt4_v1_m56577569830908129.png.swimg.detail.png
Tecnica;Bolognese;Dove peschi?;Fiume;-;-;Per iniziare ;Exage 2500 FD;http://fish.shimano-eu.com/content/eu/it_it/Home/products/reels/spinning/exage-fd.html;http://fish.shimano-eu.com/content/dam/shimanoweb/fish/eu/it_it/products/sefh_exage_fd/carousel-images/exage_fd_centred_v1_m56577569830902779.png.swimg.detail.png;CATANA BX  TE4  6 METRI;http://fish.shimano-eu.com/content/eu/it_it/Home/products/rods/telescopic/catana-bx-te-gt-4.html;http://fish.shimano-eu.com/content/dam/shimanoweb/fish/eu/it_it/products/sefh_catana_bx_tegt4/carousel-images/catana_bx_te4_v1_m56577569830908092.png.swimg.detail.png
Tecnica;Surfcasting;Come peschi?;Classico;-;-;Perfetto ;Aerotechnium MGS XSB;http://fish.shimano-eu.com/content/eu/it_it/Home/products/reels/big-pit-surf/aero-technium-xsb-mgs.html;http://fish.shimano-eu.com/content/dam/shimanoweb/fish/eu/it_it/products/sefh_aero_techniumxsbmgs/carousel-images/aero_technium_mgs_xsb_centred_v1_m56577569830902680.png.swimg.detail.png;AEROTECHNIUM AX 4317 TELESCOPICA ;http://fish.shimano-eu.com/content/eu/it_it/Home/products/rods/surf/aero-technium-ax-te-surf.html;http://fish.shimano-eu.com/content/dam/shimanoweb/fish/eu/it_it/products/sefh_aero_techniumaxtesurf/carousel-images/aero_technium_ax_v1_m56577569830907911.png.swimg.detail.png
Tecnica;Surfcasting;Come peschi?;Classico;-;-;Leggero ;Ultegra CI4 14000 XSB;http://fish.shimano-eu.com/content/eu/it_it/Home/products/reels/big-pit-surf/ultegra-ci4-xsb.html;http://fish.shimano-eu.com/content/dam/shimanoweb/fish/eu/it_it/products/sefh_ultegra_ci4xsb/carousel-images/ultegra_ci4_xsb_centred_v1_m56577569830902850.png.swimg.detail.png;SPEEDCAST 4317 TELESCOPICA;http://fish.shimano-eu.com/content/eu/it_it/Home/products/rods/surf/speedcast-surf-te.html;http://fish.shimano-eu.com/content/dam/shimanoweb/fish/eu/it_it/products/sefh_speedcast_surfte/carousel-images/speedcast_surf_te_v1_m56577569830908249.png.swimg.detail.png
Tecnica;Surfcasting;Come peschi?;Classico;-;-;Rapporto qualità/prezzo ;Ultegra 10000 XSC;http://fish.shimano-eu.com/content/eu/it_it/Home/products/reels/big-pit-surf/ultegra-xsc.html;http://fish.shimano-eu.com/content/dam/shimanoweb/fish/eu/it_it/products/sefh_ultegra_xsc/carousel-images/ultegra_xsc_centred_v1_m56577569830902856.png.swimg.detail.png;BEASTMASTER EX 4317 TELESCOPICA;http://fish.shimano-eu.com/content/eu/it_it/Home/products/rods/surf/beastmaster-ex-surf-te.html;http://fish.shimano-eu.com/content/dam/shimanoweb/fish/eu/it_it/products/sefh_beastmasterexsurfte/carousel-images/beastmaster_surf_exte_v1_m56577569830908029.png.swimg.detail.png
Tecnica;Surfcasting;Come peschi?;Classico;-;-;Per iniziare ;Beast Master 7000 XSA;http://fish.shimano-eu.com/content/eu/it_it/Home/products/reels/big-pit-surf/beastmaster-xsa.html;http://fish.shimano-eu.com/content/dam/shimanoweb/fish/eu/it_it/products/sefh_beastmasterxsa/carousel-images/beastmaster_xsa_v1_m56577569830902726.png.swimg.detail.png;VEGEANCE BX 4215 TELESCOPICA;http://fish.shimano-eu.com/content/eu/it_it/Home/products/rods/surf/vengeance-bx-tele-surf.html;http://fish.shimano-eu.com/content/dam/shimanoweb/fish/eu/it_it/products/sefh_vengeance_bxtelesurf/carousel-images/vengeance_surf_te_v1_m56577569830908455.png.swimg.detail.png
Tecnica;Surfcasting;Come peschi?;Leggero;-;-;Perfetto ;Ultegra CI4 5500 XSB;http://fish.shimano-eu.com/content/eu/it_it/Home/products/reels/big-pit-surf/ultegra-ci4-xsb.html;http://fish.shimano-eu.com/content/dam/shimanoweb/fish/eu/it_it/products/sefh_ultegra_ci4xsb/carousel-images/ultegra_ci4_xsb_centred_v1_m56577569830902850.png.swimg.detail.png;SPEEDCAST BEACH 4512 3 PCS;http://fish.shimano-eu.com/content/eu/it_it/Home/products/rods/surf/speedcast-beach.html;http://fish.shimano-eu.com/content/dam/shimanoweb/fish/eu/it_it/products/sefh_speedcast_beach/carousel-images/speedcast_beach_te_v1_m56577569830908233.png.swimg.detail.png
Tecnica;Surfcasting;Come peschi?;Leggero;-;-;Rapporto qualità/prezzo ;Ultegra 4500 XSC;http://fish.shimano-eu.com/content/eu/it_it/Home/products/reels/big-pit-surf/ultegra-xsc.html;http://fish.shimano-eu.com/content/dam/shimanoweb/fish/eu/it_it/products/sefh_ultegra_xsc/carousel-images/ultegra_xsc_centred_v1_m56577569830902856.png.swimg.detail.png;BEASTMASTER BEACH 45120  3PCS;http://fish.shimano-eu.com/content/eu/it_it/Home/products/rods/surf/beastmaster-beach.html;http://fish.shimano-eu.com/content/dam/shimanoweb/fish/eu/it_it/products/sefh_beastmasterbeach/carousel-images/beastmaster_beach_v1_m56577569830907991.png.swimg.detail.png
Tecnica;Surfcasting;Come peschi?;Leggero;-;-;Per iniziare ;Beast Master 7000 XSA;http://fish.shimano-eu.com/content/eu/it_it/Home/products/reels/big-pit-surf/beastmaster-xsa.html;http://fish.shimano-eu.com/content/dam/shimanoweb/fish/eu/it_it/products/sefh_beastmasterxsa/carousel-images/beastmaster_xsa_v1_m56577569830902726.png.swimg.detail.png;NEXAVE BEACH 42100 3PCS;http://fish.shimano-eu.com/content/eu/it_it/Home/products/rods/surf/nexave-beach.html;http://fish.shimano-eu.com/content/dam/shimanoweb/fish/eu/it_it/products/sefh_nexave_beach/carousel-images/nexave_beach_surf_v1_m56577569830908193.png.swimg.detail.png
